{
  "suggest.noselect": false,
  "solargraph.autoformat": true,
  "solargraph.formatting": true,
  "solargraph.hover": true,
  "solargraph.diagnostics": true,
  "coc.preferences.formatOnSaveFiletypes": [
    "html",
    "scss",
    "javascript",
    "typescript",
    "typescriptreact",
    "json",
    "javascriptreact",
    "ruby"
  ]
}
